[gd_scene load_steps=4 format=2]

[ext_resource path="res://areaprojectile/armour.gd" type="Script" id=1]

[sub_resource type="BoxShape" id=1]

[sub_resource type="CubeMesh" id=2]

[node name="armour" type="Area"]
transform = Transform( 0.27194, 0, 0, 0, 0.27194, 0, 0, 0, 0.27194, 0, 0, -1.72229 )
script = ExtResource( 1 )

[node name="CollisionShape" type="CollisionShape" parent="."]
shape = SubResource( 1 )

[node name="MeshInstance" type="MeshInstance" parent="CollisionShape"]
mesh = SubResource( 2 )
material/0 = null
